{
	"0": {
		"name": "InnerPixels",
		"hitsScoreWeight": 20,
		"holesScoreWeight": -10,
		"outliersScoreWeight": -2,
		"otherScoreWeight": 0,
		"minHits": 0,
		"maxHits": 8,
		"maxHoles": 2,
		"maxOutliers": 10,
		"maxSharedHits": 3,
		"sharedHitsFlag": false,
		"goodHits": [0.095, 0.031, 0.118, 0.615, 0.137, 0.011, 0.01   , 0.011, 0.012],
		"fakeHits": [0.658, 0.100, 0.091, 0.124, 0.026, 0.002, 0.001  , 0.001, 0.001],
		"goodHoles": [1.0 , 0.04 , 0.004 ],
		"fakeHoles": [1.0 , 0.30 , 0.200 ],
		"volumesIds": [8, 9, 10, 13, 14, 15, 16, 17, 18, 19, 20]
	},
	"1": {
		"name": "Strips",
		"hitsScoreWeight": 10,
		"holesScoreWeight": -5,
		"outliersScoreWeight": -2,
		"otherScoreWeight": 0,
		"minHits": 0,
		"maxHits": 8,
		"maxHoles": 5,
		"maxOutliers": 10,
		"maxSharedHits": 3,
		"sharedHitsFlag": false,
		"goodHits": [0.095, 0.031, 0.118, 0.615, 0.137, 0.011, 0.01   , 0.011, 0.012],
		"fakeHits": [0.658, 0.100, 0.091, 0.124, 0.026, 0.002, 0.001  , 0.001, 0.001],
		"goodHoles": [1.0 , 0.06 , 0.010 , 0.0007, 0.0005, 0.0003],
		"fakeHoles": [1.0 , 0.15 , 0.100 , 0.0100, 0.0100, 0.0100 ],
		"volumesIds": [22, 23, 24]
	},
    "2": {
        "name": "HGTD",
        "hitsScoreWeight": 10,
        "holesScoreWeight": -5,
        "outliersScoreWeight": -2,
        "otherScoreWeight": 0,
        "minHits": 0,
        "maxHits": 26,
        "maxHoles": 5,
        "maxOutliers": 10,
        "maxSharedHits": 3,
        "sharedHitsFlag": false,
		"goodHits": [0.01, 0.34, 0.67, 1.0, 1.33, 5.0, 6.19, 7.381, 8.571, 9.762, 10.952, 12.143, 13.333, 14.524, 15.714, 16.905, 18.095, 19.286, 20.476, 21.667, 22.857, 24.048, 25.238, 26.429, 27.619, 28.81, 30.0],
		"fakeHits": [0.01, 0.34, 0.67, 1.0, 1.33, 5.0, 6.19, 7.381, 8.571, 9.762, 10.952, 12.143, 13.333, 14.524, 15.714, 16.905, 18.095, 19.286, 20.476, 21.667, 22.857, 24.048, 25.238, 26.429, 27.619, 28.81, 30.0],
		"goodHoles": [1.0, 0.4, 0.1, 0.07, 0.05, 0.03],
		"fakeHoles": [1.0, 0.4, 0.1, 0.07, 0.05, 0.03],
        "volumesIds": [2,25]
    }
}